…
```
## Warning: Expected 3 pieces. Additional pieces discarded in 901357 rows [1, 2, 3, 4, 5,
## 6, 7, 8, 9, 10, 11, 12, 13, 14, 15, 16, 17, 18, 19, 20, ...].
```


```r
naniar::miss_var_summary(crime)
```

```
## # A tibble: 30 × 3
##    variable       n_miss pct_miss
##    <chr>           <int>    <dbl>
##  1 crm_cd_4       901357 100     
##  2 crm_cd_3       899144  99.8   
##  3 crm_cd_2       835674  92.7   
##  4 cross_street   759302  84.2   
##  5 weapon_used_cd 589089  65.4   
##  6 weapon_desc    589089  65.4   
##  7 mocodes        125590  13.9   
##  8 vict_descent   119401  13.2   
##  9 vict_sex       119392  13.2   
## 10 premis_desc       550   0.0610
## # ℹ 20 more rows
```
…
